<?xml version="1.0" encoding="UTF-8"?>
<session version="1.0">
<refactoring accessors="true" comment="Delete element from project &apos;accesCatalogueBean&apos;&#x0D;&#x0A;- Original project: &apos;accesCatalogueBean&apos;&#x0D;&#x0A;- Original element: &apos;fr.ulco.ejb.Catalogue.accesCatalogueBean.java&apos;" description="Delete element" element1="/ejbModule&lt;fr.ulco.ejb.Catalogue{accesCatalogueBean.java" elements="1" flags="589830" id="org.eclipse.jdt.ui.delete" resources="0" stamp="1574764928621" subPackages="false" version="1.0"/>
</session>