<?xml version="1.0" encoding="UTF-8"?>
<session version="1.0">
<refactoring accessors="true" comment="Delete element from project &apos;gestionCommandeBean&apos;&#x0D;&#x0A;- Original project: &apos;gestionCommandeBean&apos;&#x0D;&#x0A;- Original element: &apos;gestionCommandeBean/ejbModule/fr.ulco.ejb&apos;" description="Delete element" element1="/ejbModule&lt;fr.ulco.ejb" element2="/ejbModule&lt;fr.ulco" element3="/ejbModule&lt;fr" elements="3" flags="589830" id="org.eclipse.jdt.ui.delete" resources="0" stamp="1574764751604" subPackages="false" version="1.0"/>
</session>